-> General
    -> Nom du monstre (string)
    (-> lien vers la page du monstre)
    -> description (string)
    -> creature type (ex: outsider) (string)
-> Offense:
	-> Speed (int)
	-> Melee (True/False) / Ranged (T/F)
	-> liste des special attacks (string)
	-> liste des sorts (liste(string))
-> Defense:
	-> AC (int)
	-> HP (int)
	-> SR (int)
	-> Immune (liste(string))
-> Statistics:
	-> STR (int)
	-> DEX (int)
	-> CON (int)
	-> INT (int)
	-> WIS (int)
	-> CHA (int)
	-> liste des languages (liste(string))